Assessment Factors
…
Species_Taxa_Mass

## # A tibble: 24 x 4
##    org_f     acute.chronic_f effect.metric species_count
##    <fct>     <fct>           <chr>                 <int>
##  1 Algae     Chronic         LOEC                      7
##  2 Algae     Acute           LOEC                      2
##  3 Algae     Chronic         NOEC                      2
##  4 Annelida  Chronic         LOEC                      1
##  5 Bacterium Acute           LOEC                      1
##  6 Cnidaria  Chronic         LOEC                      3
##  7 Cnidaria  Acute           NOEC                      1
##  8 Cnidaria  Acute           LOEC                      1
##  9 Crustacea Acute           LOEC                      9
## 10 Crustacea Acute           NOEC                      6
## # ... with 14 more rows
…
grouped

## # A tibble: 233 x 10
## # Groups:   org_f, acute.chronic_f, effect.metric, lvl1_f [144]
##    org_f acute.chronic_f effect.metric lvl1_f     size_f        meanEffect.part~
##    <fct> <fct>           <chr>         <fct>      <fct>                    <dbl>
##  1 Algae Chronic         HONEC         Fitness    1nm < 100nm            9.49e11
##  2 Algae Chronic         HONEC         Fitness    1m < 100m          1.92e 5
##  3 Algae Chronic         HONEC         Fitness    100m < 1mm           7   e 1
##  4 Algae Chronic         HONEC         Metabolism 100nm < 1m           1.78e11
##  5 Algae Chronic         HONEC         Metabolism 1m < 100m          1.78e 8
##  6 Algae Chronic         HONEC         Metabolism 100m < 1mm           7   e 1
##  7 Algae Chronic         LOEC          Fitness    1nm < 100nm            5.72e12
##  8 Algae Chronic         LOEC          Fitness    100nm < 1m           1.78e11
##  9 Algae Chronic         LOEC          Fitness    1m < 100m          6.23e 7
## 10 Algae Chronic         LOEC          Fitness    100m < 1mm           3.5 e 1
## # ... with 223 more rows, and 4 more variables: meanEffect.mass <dbl>,
## #   meanEffect.volume <dbl>, sdEffect.mass <dbl>, nstudies <int>
…
grouped2

## # A tibble: 36 x 8
## # Groups:   org_f, acute.chronic_f, effect.metric [22]
##    org_f     acute.chronic_f effect.metric lvl1_f meanEffect.part~ meanEffect.mass
##    <fct>     <fct>           <chr>         <fct>             <dbl>           <dbl>
##  1 Algae     Chronic         LOEC          Fitne~          2.12e 6            89  
##  2 Algae     Chronic         LOEC          Metab~          2.33e 1           117. 
##  3 Algae     Chronic         NOEC          Fitne~          8.80e11           197. 
##  4 Annelida  Acute           NOEC          Behav~         NA                  NA  
##  5 Annelida  Chronic         LOEC          Alime~         NA                  NA  
##  6 Annelida  Chronic         LOEC          Immune         NA                  NA  
##  7 Annelida  Chronic         LOEC          Metab~         NA                  NA  
##  8 Cnidaria  Acute           LOEC          Fitne~          1.28e 5         80000  
##  9 Crustacea Acute           LOEC          Circu~         NA                  NA  
## 10 Crustacea Acute           LOEC          Fitne~          1.22e10            10.5
## # ... with 26 more rows, and 2 more variables: sdEffect.mass <dbl>,
## #   nstudies <int>
…
